/* XPM */
static char * concensum_32_xpm[] = {
"32 32 2 1",
" 	c None",
".	c #F9423A",
"            .....               ",
"         ......   .....         ",
"       .......  .........       ",
"      .......  ...........      ",
"     .......  .............     ",
"    ........ ...............    ",
"   ........  ................   ",
"  .........  .................  ",
"  .........  .................  ",
" ..........   ................. ",
" ..........     ............... ",
" ..........       ............. ",
"...........         ............",
"...........          ...........",
"...........            .........",
"...........              .......",
"...........               ......",
"...........            ..  .....",
"...........          .....  ....",
" ..........         ....... ....",
" ..........       .........  .. ",
"  .........     ............ .. ",
"    .......   .............. .. ",
"  .   ...    ............... .  ",
"  ...      ................. .  ",
"   .........................    ",
"    .......................     ",
"     ......................     ",
"      ....................      ",
"       ..................       ",
"         ..............         ",
"            ........            "};
